<?xml version="1.0" encoding="UTF-8" standalone="no"?>
<!-- Created with Inkscape (http://www.inkscape.org/) -->

<svg
   width="512"
   height="128"
   viewBox="0 0 135.46665 33.866668"
   version="1.1"
   id="svg5"
   inkscape:version="1.1.2 (0a00cf5339, 2022-02-04)"
   sodipodi:docname="logo.svg"
   xmlns:inkscape="http://www.inkscape.org/namespaces/inkscape"
   xmlns:sodipodi="http://sodipodi.sourceforge.net/DTD/sodipodi-0.dtd"
   xmlns:xlink="http://www.w3.org/1999/xlink"
   xmlns="http://www.w3.org/2000/svg"
   xmlns:svg="http://www.w3.org/2000/svg">
  <sodipodi:namedview
     id="namedview7"
     pagecolor="#353535"
     bordercolor="#666666"
     borderopacity="1.0"
     inkscape:pageshadow="2"
     inkscape:pageopacity="0"
     inkscape:pagecheckerboard="true"
     inkscape:document-units="mm"
     showgrid="false"
     units="px"
     width="128px"
     inkscape:zoom="1.5287037"
     inkscape:cx="303.19806"
     inkscape:cy="45.79043"
     inkscape:window-width="1920"
     inkscape:window-height="1044"
     inkscape:window-x="0"
     inkscape:window-y="36"
     inkscape:window-maximized="1"
     inkscape:current-layer="layer1" />
  <defs
     id="defs2">
    <rect
       x="149.28464"
       y="18.029891"
       width="303.95685"
       height="96.575286"
       id="rect20304" />
    <linearGradient
       inkscape:collect="always"
       id="linearGradient15434">
      <stop
         style="stop-color:#ff5a4a;stop-opacity:1"
         offset="0"
         id="stop15430" />
      <stop
         style="stop-color:#ff8a4c;stop-opacity:1"
         offset="1"
         id="stop15432" />
    </linearGradient>
    <linearGradient
       inkscape:collect="always"
       xlink:href="#linearGradient15434"
       id="linearGradient11174"
       x1="26.506628"
       y1="27.655256"
       x2="4.2216492"
       y2="5.1131549"
       gradientUnits="userSpaceOnUse"
       gradientTransform="translate(17.498574,-34.746112)" />
    <linearGradient
       inkscape:collect="always"
       xlink:href="#linearGradient15434"
       id="linearGradient12961"
       gradientUnits="userSpaceOnUse"
       x1="3.7467117"
       y1="7.3907089"
       x2="10.83133"
       y2="4.0632777"
       gradientTransform="matrix(3.1814637,0,0,3.1814637,14.805948,-3.0733481)" />
    <linearGradient
       inkscape:collect="always"
       xlink:href="#linearGradient15434"
       id="linearGradient12963"
       gradientUnits="userSpaceOnUse"
       x1="3.7467117"
       y1="7.3907089"
       x2="10.83133"
       y2="4.0632777"
       gradientTransform="matrix(3.1814637,0,0,3.1814637,14.805948,-3.0733481)" />
    <linearGradient
       inkscape:collect="always"
       xlink:href="#linearGradient15434"
       id="linearGradient15662"
       x1="31.30434"
       y1="31.483503"
       x2="31.318514"
       y2="27.976347"
       gradientUnits="userSpaceOnUse"
       gradientTransform="translate(14.770687,-4.2068174)" />
    <linearGradient
       inkscape:collect="always"
       xlink:href="#linearGradient15434"
       id="linearGradient56632"
       x1="171.5979"
       y1="58.692097"
       x2="332.76688"
       y2="7.474906"
       gradientUnits="userSpaceOnUse" />
  </defs>
  <g
     inkscape:label="Warstwa 1"
     inkscape:groupmode="layer"
     id="layer1">
    <path
       style="fill:none;stroke:url(#linearGradient11174);stroke-width:1.5875;stroke-linecap:round;stroke-miterlimit:4;stroke-dasharray:none;stroke-opacity:1"
       id="path846"
       transform="rotate(53.255152)"
       sodipodi:type="arc"
       sodipodi:cx="34.431904"
       sodipodi:cy="-17.812777"
       sodipodi:rx="14.282173"
       sodipodi:ry="14.282173"
       sodipodi:start="0"
       sodipodi:end="5.7595865"
       sodipodi:arc-type="arc"
       d="M 48.714077,-17.812777 A 14.282173,14.282173 0 0 1 36.296102,-3.6527894 14.282173,14.282173 0 0 1 20.636384,-14.116278 a 14.282173,14.282173 0 0 1 8.329968,-16.891506 14.282173,14.282173 0 0 1 17.834276,6.05392"
       sodipodi:open="true" />
    <path
       d="m 26.097945,22.231159 c -0.388779,0 -0.725223,-0.118106 -1.009331,-0.354309 -0.269155,-0.249328 -0.403731,-0.544582 -0.403731,-0.885775 v -8.364942 c 0,-0.269651 0.09719,-0.496725 0.291584,-0.681223 0.194391,-0.198695 0.433639,-0.298036 0.717748,-0.298036 0.284107,0 0.523357,0.09934 0.717746,0.298036 0.209344,0.184499 0.314014,0.411572 0.314014,0.681223 v 7.813791 h 6.148781 c 0.238181,0 0.438752,0.09186 0.601716,0.275575 0.175499,0.170593 0.263247,0.380555 0.263247,0.629885 0,0.249328 -0.08775,0.459291 -0.263247,0.629885 -0.162964,0.170593 -0.363536,0.255891 -0.601716,0.255891 z"
       style="font-style:normal;font-variant:normal;font-weight:bold;font-stretch:normal;font-size:5.21147px;line-height:1.25;font-family:'Varela Round';-inkscape-font-specification:'Varela Round Bold';letter-spacing:0px;word-spacing:0px;fill:url(#linearGradient12961);fill-opacity:1.0;stroke:none;stroke-width:0.415;stroke-miterlimit:4;stroke-dasharray:none"
       id="path922"
       sodipodi:nodetypes="scsscscscscscss" />
    <path
       d="m 36.518095,22.270235 c -0.286026,0 -0.526891,-0.101355 -0.722593,-0.304059 -0.195701,-0.202705 -0.293553,-0.45219 -0.293553,-0.748454 v -8.947147 c 0,-0.18518 0.09785,-0.341122 0.293553,-0.467825 0.195702,-0.13645 0.436567,-0.204673 0.722594,-0.204673 h 4.460986 c 1.190895,0 2.162415,0.161828 2.91456,0.48549 0.752144,0.323661 1.291181,0.73835 1.617111,1.244069 0.325928,0.50572 0.488894,1.051896 0.488894,1.63853 0,0.586634 -0.162965,1.132811 -0.488894,1.63853 -0.325931,0.505719 -0.864968,0.920409 -1.617112,1.244069 -0.752144,0.323661 -1.723653,0.485491 -2.91456,0.485491 h -3.422257 v 2.883466 c 0,0.296264 -0.10538,0.545748 -0.316136,0.748454 -0.195702,0.202707 -0.436566,0.304059 -0.722593,0.304059 z M 40.809849,17.0295 c 1.278645,0 2.174951,-0.197228 2.688916,-0.591691 0.526501,-0.394461 0.789752,-0.885009 0.789752,-1.471643 0,-0.586634 -0.26325,-1.077182 -0.789752,-1.471642 C 42.9848,13.100063 42.088494,12.902832 40.809849,12.902832 H 37.556824 V 17.0295 Z"
       style="font-style:normal;font-variant:normal;font-weight:bold;font-stretch:normal;font-size:5.21147px;line-height:1.25;font-family:'Varela Round';-inkscape-font-specification:'Varela Round Bold';letter-spacing:0px;word-spacing:0px;fill:url(#linearGradient12963);fill-opacity:1;stroke:none;stroke-width:0.415;stroke-miterlimit:4;stroke-dasharray:none"
       id="path924"
       sodipodi:nodetypes="sssscsssssssscscsscscsccs" />
    <circle
       style="fill:url(#linearGradient15662);fill-opacity:1;stroke:none;stroke-width:0.414999;stroke-miterlimit:4;stroke-dasharray:none;stroke-opacity:1"
       id="path15538"
       cx="46.074131"
       cy="25.705355"
       r="1.6562569" />
    <text
       xml:space="preserve"
       transform="matrix(0.49600134,0,0,0.49600134,-21.152181,-5.3114528)"
       id="text20302"
       style="font-style:normal;font-variant:normal;font-weight:normal;font-stretch:normal;font-size:53.3333px;line-height:1.25;font-family:'Varela Round';-inkscape-font-specification:'Varela Round';letter-spacing:0px;word-spacing:0px;white-space:pre;shape-inside:url(#rect20304);fill:url(#linearGradient56632);fill-opacity:1;stroke:none"><tspan
         x="149.28516"
         y="65.360387"
         id="tspan858">node</tspan></text>
  </g>
</svg>
