<?xml version="1.0" encoding="UTF-8" standalone="no"?>
<svg
   xmlns:dc="http://purl.org/dc/elements/1.1/"
   xmlns:cc="http://creativecommons.org/ns#"
   xmlns:rdf="http://www.w3.org/1999/02/22-rdf-syntax-ns#"
   xmlns:svg="http://www.w3.org/2000/svg"
   xmlns="http://www.w3.org/2000/svg"
   xmlns:sodipodi="http://sodipodi.sourceforge.net/DTD/sodipodi-0.dtd"
   xmlns:inkscape="http://www.inkscape.org/namespaces/inkscape"
   width="100"
   height="100"
   viewBox="0 0 26.458333 26.458334"
   version="1.1"
   id="svg8"
   inkscape:version="1.0.2 (e86c870879, 2021-01-15)"
   sodipodi:docname="black.svg"
   inkscape:export-filename="/home/piotr/Dokumenty/Projects/QtProjects/LyricsProjector/build-LyricsProjectorClient-Desktop-Debug/icons/black_variant.png"
   inkscape:export-xdpi="96"
   inkscape:export-ydpi="96">
  <defs
     id="defs2" />
  <sodipodi:namedview
     id="base"
     pagecolor="#000000"
     bordercolor="#666666"
     borderopacity="1.0"
     inkscape:pageopacity="0"
     inkscape:pageshadow="2"
     inkscape:zoom="4.215"
     inkscape:cx="14.911125"
     inkscape:cy="67.323157"
     inkscape:document-units="mm"
     inkscape:current-layer="layer1"
     inkscape:document-rotation="0"
     showgrid="false"
     units="px"
     inkscape:pagecheckerboard="true"
     inkscape:window-width="1920"
     inkscape:window-height="1044"
     inkscape:window-x="0"
     inkscape:window-y="36"
     inkscape:window-maximized="1" />
  <metadata
     id="metadata5">
    <rdf:RDF>
      <cc:Work
         rdf:about="">
        <dc:format>image/svg+xml</dc:format>
        <dc:type
           rdf:resource="http://purl.org/dc/dcmitype/StillImage" />
        <dc:title></dc:title>
      </cc:Work>
    </rdf:RDF>
  </metadata>
  <g
     inkscape:label="Warstwa 1"
     inkscape:groupmode="layer"
     id="layer1">
    <path
       id="rect1493"
       style="fill:#ffffff;fill-opacity:1;stroke-width:1.22656;stroke-miterlimit:4;stroke-dasharray:none"
       d="M 8.8203125 18.285156 A 7.5993343 7.1429826 0 0 0 1.2246094 25.425781 L 1.2246094 74.574219 A 7.5993343 7.1429826 0 0 0 8.8203125 81.714844 L 13.146484 81.714844 L 16.611328 77.080078 L 12.646484 77.080078 A 6.8931479 6.0991133 0 0 1 5.7558594 70.982422 L 5.7558594 29.017578 A 6.8931479 6.0991133 0 0 1 12.646484 22.919922 L 57.085938 22.919922 L 60.548828 18.285156 L 8.8203125 18.285156 z M 86.853516 18.285156 L 83.388672 22.919922 L 87.353516 22.919922 A 6.8931479 6.0991133 0 0 1 94.244141 29.017578 L 94.244141 70.982422 A 6.8931479 6.0991133 0 0 1 87.353516 77.080078 L 42.914062 77.080078 L 39.451172 81.714844 L 91.179688 81.714844 A 7.5993343 7.1429826 0 0 0 98.775391 74.574219 L 98.775391 25.425781 A 7.5993343 7.1429826 0 0 0 91.179688 18.285156 L 86.853516 18.285156 z "
       transform="scale(0.26458333)" />
    <rect
       style="fill:#ffffff;fill-opacity:1;stroke-width:0.456583;stroke-miterlimit:4;stroke-dasharray:none"
       id="rect1517"
       width="1.4434025"
       height="28.733089"
       x="17.794575"
       y="-11.689004"
       ry="0.89987385"
       transform="rotate(36.771795)" />
  </g>
</svg>
